Country;Category;Attraction;Description;Image;Weblink
Germany;Castles;Castle Nymphenburg;;Schloss-Nymphenburg-Muenchen.jpg;http://www.schloss-nymphenburg.de/englisch/palace/index.htm
Germany;Castles;Amalienburg;;Amalienburg.jpeg;http://www.schloss-nymphenburg.de/englisch/p-palaces/amalien.htm
Germany;Castles;Schlossanlage Schleissheim;;Schlossanlage_Schleissheim.jpeg;http://www.schloesser-schleissheim.de/englisch/tourist/index.htm
Germany;Castles;Castle Neuschwanstein;;Schloss Neuschwanstein.jpg;http://www.neuschwanstein.de/englisch/tourist/index.htm
Germany;;;;;
Germany;;;;;
Germany;Museums;BMW Museum;;bmw-welt-museum.jpg;https://www.bmw-welt.com/en/locations/museum.html
Germany;Museums;German Museum;;deutsche-museum.jpg;http://www.deutsches-museum.de/index.php?id=1&L=1
Germany;Museums;Munich city museum;;muenchner-stadtmuseum.jpg;https://www.muenchner-stadtmuseum.de/en.html
Germany;Museums;Bavarian Nationalmuseum;;Bayrisches_Nationalmuseum.jpg;https://www.bayerisches-nationalmuseum.de/index.php?id=1&L=1
Germany;Museums;Egyptian Museum;;aegyptisches-museum.jpg;http://www.smaek.de/index.php?id=999
Germany;Museums;Pinakotheken;;Pinakotheken.jpg;https://www.pinakothek.de/en
Germany;;;;;
Germany;Churches;Frauenkirche;;Frauenkirche.jpeg;https://en.wikipedia.org/wiki/Munich_Frauenkirche
Germany;Churches;Asamkirche;;Asamkirche.jpg;https://en.wikipedia.org/wiki/Asam_Church,_Munich
Germany;;;;;
Germany;Historic Sights;Munich Residence;Filming location of 3 musketeers;Muenchner-Residenz.jpg;http://www.residenz-muenchen.de/englisch/tourist/index.htm
Germany;Historic Sights;Feldherrnhalle;;Feldherrnhalle.jpeg;https://www.schloesser.bayern.de/deutsch/schloss/objekte/mu_feldh.htm
Germany;Historic Sights;Maximilianeum;;Maximilianeum.jpg;https://www.google.com/search?q=maximilianeum&ie=utf-8&oe=utf-8&client=firefox-b-ab
Germany;;;;;
Germany;German History;National Socialism Documentation Centre;;ns-dokumentationszentrum.jpg;https://www.ns-dokuzentrum-muenchen.de/1/home/
Germany;German History;Dachau Concentracion Camp;;KZ Gedenkstaette Dachau.jpg;http://www.kz-gedenkstaette-dachau.de/index-e.html
Germany;;;;;
Germany;Theatres;Nationaltheater;;Nationaltheater.jpg;https://www.staatsoper.de/en/your-visit/approach.html
Germany;;;;;
Germany;;;;;
Germany;English Garden ;English Garden;;Englischer_Garten.JPG;https://www.muenchen.de/sehenswuerdigkeiten/orte/120242.html
Germany;English Garden ;>> Eisbach (Surf wave);;Eisbach.jpg;https://www.muenchen.de/freizeit/sport/surfen.html
Germany;English Garden ;>> pedal-boat on Kleinhesseloher lake;;TretbootEnglGarten.jpeg;
Germany;English Garden ;>> Chinese tower beergarden;;Chinesischer Turm.jpg;http://www.munichbeergardens.com/Chinesischer_Turm
Germany;English Garden ;>> Gasthof Seehaus;;Gasthof-Seeehaus.jpg;https://www.kuffler.de/en/
;;;;;
;;;;;
;;;;;
;;;;;
Germany;Parks;Westpark ;;Westpark.jpg;https://www.muenchen.de/sehenswuerdigkeiten/orte/120259.html
Germany;Parks;Olympiapark & Olympiatower;;Olympiapark.jpg;https://www.olympiapark.de/en/olympiapark-munich/
Germany;Parks;Hofgarten;;Hofgarten.jpg;https://www.muenchen.de/sehenswuerdigkeiten/orte/120231.html
Germany;Zoo;Zoo Hellabrunn;;Tierpark Hellabrunn.jpg;https://www.hellabrunn.de/en/
Germany;Zoo;Wildlife park Poing;;Wildpark Poing.jpg;https://www.wildpark-poing.de/besucherinfo/
Germany;Fun;Wellenbad Dingolfing;;Wellenbad Dingolfing.jpg;https://www.caprima.de/erlebnisbad
Germany;Fun;Zahnradbahn Zugspitze;;Zahnradbahn Zugspitze.jpg;https://zugspitze.de/en/summer
Germany;Fun;Kletterwald München am Walderlebniszentrum in Grünwald;;Muenchner-Kletterwald.jpg;https://www.kletterwald-muenchen.de/short-info-english
Germany;Fun;Legoland Günzburg;;Legoland Guenzburg.jpg;https://www.legoland.de/
Germany;Fun;Jochen Schweizer Arena;Wave surfing, body flying, ..;JochenSchweizerArena.jpg;https://www.jochen-schweizer.de/landingpage/infos-jochen-schweizer-arena,default,pg.html
Germany;Fun;AirHop Trampolinpark;;Airhop-Trampolinpark.jpg;http://www.airhoppark.de/muenchen/
Germany;Fun;Allianz Arena Soccer Station;;Allianz Arena.jpeg;https://allianz-arena.com/en
Germany;Fun;Sea Life;;SeaLife.JPG;https://www.visitsealife.com/de/en/munich/
Germany;Fun;Bavaria Movie City;;Bavaria Filmstadt.jpg;https://www.filmstadt.de/en.html
;;;;;
Germany;Sight Seeing;City tour bus;;CityTourBus.jpg;https://www.citysightseeing-muenchen.de/
Germany;Sight Seeing;Segway tour;;SegwayTour.jpg;https://www.seg-tour-munich.com/
;;;;;
Germany;Urban Culture;Kulturstrand Munich;;KulturstrandMuenchen.jpg;https://kulturstrand.org/impressionen/
;;;;;
Germany;Shopping;Marienplatz;;Marienplatz.jpg;https://www.google.com/maps/place/Marienplatz/@48.1382726,11.5741169,16.5z/data=!4m5!3m4!1s0x0:0xdead51b35f0e0bb3!8m2!3d48.1373932!4d11.5754485
Germany;Shopping;Kaufingerstrasse;;Kaufingerstrasse.jpg;https://www.google.com/maps/place/Marienplatz/@48.1382726,11.5741169,16.5z/data=!4m5!3m4!1s0x0:0xdead51b35f0e0bb3!8m2!3d48.1373932!4d11.5754485
Germany;Shopping;Stachus;;Stachus.jpg;"https://www.google.com/search?client=firefox-b-ab&q=Stachus&npsic=0&rflfq=1&rlha=0&rllag=48139093,11566229,26&tbm=lcl&ved=2ahUKEwiD64GL67fcAhWOblAKHRmuDFkQtgN6BAgBEC0&tbs=lrf:!2m1!1e2!2m1!1e3!3sIAE,lf:1,lf_ui:2&rldoc=1#rlfi=hd:;si:5986232855190454813;mv:!1m3!1d2669.5089608045464!2d11.572142628701386!3d48.13771557288497!3m2!1i1500!2i770!4f13.1"
Germany;Shopping;Viktualienmarkt;;Viktualienmarkt.jpeg;https://www.google.com/maps/place/Viktualienmarkt/@48.1352516,11.5739894,17.25z/data=!4m5!3m4!1s0x479e758abf64ec17:0x29f6ac8946882cc1!8m2!3d48.1351143!4d11.5762549
Germany;Shopping;Maximilianstrasse;;Maximilianstrasse.jpg;https://www.google.com/maps/place/Maximilianstra%C3%9Fe,+M%C3%BCnchen/@48.1383485,11.5818486,17z/data=!3m1!4b1!4m5!3m4!1s0x479e758930fbdc47:0x9c34ed51dd835782!8m2!3d48.1383449!4d11.5840373
;;;;;
Germany;Beergarden;Zum Sollner Hirschen;;ZumSollnerHirschen.jpg;https://www.zumsollnerhirschen.de/
Germany;Beergarden;Forsthaus Kasten;;Forsthaus Kasten.jpg;https://www.forst-kasten.de/biergarten/
Germany;Beergarden;Minihofbräuhaus;;Minihofbräuhaus.jpeg;http://www.minihofbraeuhaus.de/minihb/index.php?anfahrt
Germany;Beergarden;Insel Mühle;;InselMuehle.jpeg;https://www.inselmuehle-muenchen.com/index.php?closeNews=1&option=com_content&Itemid=103&lang=en
;;;;;
Germany;Restaurants with a view;Vorhoelzer Forum;;VorhoelzerForum.jpeg;https://www.google.com/search?q=Vorhoelzer+Forum&client=firefox-b-ab&source=lnms&tbm=isch&sa=X&ved=2ahUKEwiIxtH07rfcAhXDaFAKHQsoCF4Q_AUoAnoECAEQBA&biw=1920&bih=915
Germany;Restaurants with a view;„The Terrace“ Hotel Mandarin Oriental;;The terrace Mandarin oriental.jpg;https://www.google.com/search?client=firefox-b-ab&biw=1920&bih=915&tbm=isch&sa=1&ei=zyxXW8zrA8LVwQLU6Y2gBQ&q=%E2%80%9EThe+Terrace%E2%80%9C+Hotel+Mandarin+Oriental&oq=%E2%80%9EThe+Terrace%E2%80%9C+Hotel+Mandarin+Oriental&gs_l=img.3...34425.34425.0.34803.1.1.0.0.0.0.76.76.1.1.0....0...1c.1.64.img..0.0.0....0.LYZX2K0oLuA
Germany;Restaurants with a view;„EMIKO“ Louis Hotel;;EMIKO.png;https://www.google.com/search?q=%E2%80%9EEMIKO%E2%80%9C+Louis+Hotel&client=firefox-b-ab&source=lnms&tbm=isch&sa=X&ved=2ahUKEwiwsaSc77fcAhUFKFAKHWSzCWIQ_AUoAXoECAEQAw&biw=1920&bih=915
Germany;Restaurants with a view;Dachgarten am Stachus;;DachgartenAmStachus.jpg;https://www.google.com/maps?q=Dachgarten+am+Stachus&client=firefox-b-ab&biw=1920&bih=915&um=1&ie=UTF-8&sa=X&ved=0ahUKEwiu6Ivm77fcAhWBPFAKHR9JAF8Q_AUICigB
;;;;;
Germany;Restaurants;Hofbräuhaus am Platzl;;hofbraeuhaus-am-platzl.jpg;https://www.google.com/search?q=Hofbr%C3%A4uhaus+am+Platzl&client=firefox-b-ab&source=lnms&tbm=isch&sa=X&ved=2ahUKEwjNqfiY8LfcAhXRLFAKHed8BBoQ_AUoAnoECAEQBA&biw=1920&bih=915
Germany;Restaurants;Osteria;;Osteria.jpg;http://osteria.de/
Germany;Restaurants;Kaisergarten;;Kaisergarten.jpg;https://www.google.com/search?q=kaisergarten+m%C3%BCnchen&client=firefox-b-ab&source=lnms&tbm=isch&sa=X&ved=2ahUKEwjpmu388LfcAhXOaVAKHaE4DFQQ_AUoAnoECAEQBA&biw=1920&bih=915
Germany;Cafés;Café Tambosi;;Cafe Tambosi.jpeg;https://www.google.com/maps/place/TAMBOSI/@48.1429326,11.5760292,17z/data=!3m1!4b1!4m5!3m4!1s0x479e758d374bd745:0xdb99a201e906df32!8m2!3d48.1429326!4d11.5782179
Germany;Cafés;Café Dallmayr;;CafeDallmayr.jpg;https://www.google.com/maps/place/Restaurant+Dallmayr/@48.2789011,11.4424113,11z/data=!4m8!1m2!2m1!1sCaf%C3%A9+Dallmayr!3m4!1s0x479e758b6ac4520d:0xcea5642b0103c621!8m2!3d48.1381907!4d11.5772698
Germany;Cafés;Café Bar Centrale;;CafeBarCentrale.jpg;https://www.google.com/maps/search/Caf%C3%A9+Bar+Centrale/@48.2684811,11.5207019,11z/data=!3m1!4b1
Germany;Ice Cream;BallaBeni;Best ice cream in town!;Ballabeni.jpg;https://www.google.com/maps/search/ballabeni+M%C3%BCnchen/@48.1470856,11.5577062,15z/data=!3m1!4b1
Germany;;;;;
Germany;Lakes;Chiemsee & Fraueninsel;;Chiemsee.jpg;https://www.chiemsee-schifffahrt.de/en/erlebnisse/fraueninsel/
Germany;Lakes;Lake Starnberg;;Starnberger-See.jpg;http://www.munich-touristinfo.de/Lake-Starnberg.htm
Germany;Lakes;Lake Tegernsee;;Tegernsee.jpg;http://en.tegernsee.com/
;;;;;
;;;;;
;;;;;
;;;;;
;;;;;